Adder/dump.vcd
$date
	Mon Jan 05 13:50:13 2026
$end
$version
	QuestaSim Version 10.0b
$end
$timescale
	1ps
$end
$scope module add_tb $end
$scope module dut $end
$upscope $end
$upscope $end
$scope begin uvm_pkg $end
$var parameter 32 ! UVM_HDL_MAX_WIDTH $end
$var parameter 0 " uvm_mgc_copyright $end
$var parameter 0 # uvm_cdn_copyright $end
$var parameter 0 $ uvm_snps_copyright $end
$var parameter 0 % uvm_revision $end
$var parameter 32 & UVM_STREAMBITS $end
$var parameter 32 ' UVM_RADIX $end
$var parameter 32 ( UVM_MACRO_NUMFLAGS $end
$var parameter 32 ) UVM_DEFAULT $end
$var parameter 32 * UVM_ALL_ON $end
$var parameter 32 + UVM_FLAGS_ON $end
$var parameter 32 , UVM_FLAGS_OFF $end
$var parameter 32 - UVM_COPY $end
$var parameter 32 . UVM_NOCOPY $end
$var parameter 32 / UVM_COMPARE $end
$var parameter 32 0 UVM_NOCOMPARE $end
$var parameter 32 1 UVM_PRINT $end
$var parameter 32 2 UVM_NOPRINT $end
$var parameter 32 3 UVM_RECORD $end
$var parameter 32 4 UVM_NORECORD $end
$var parameter 32 5 UVM_PACK $end
$var parameter 32 6 UVM_NOPACK $end
$var parameter 32 7 UVM_PHYSICAL $end
$var parameter 32 8 UVM_ABSTRACT $end
$var parameter 32 9 UVM_READONLY $end
$var parameter 32 : UVM_NODEFPRINT $end
$var parameter 32 ; UVM_MACRO_EXTRAS $end
$var parameter 32 < UVM_FLAGS $end
$var parameter 32 = UVM_UNPACK $end
$var parameter 32 > UVM_CHECK_FIELDS $end
$var parameter 32 ? UVM_END_DATA_EXTRA $end
$var parameter 32 @ UVM_START_FUNCS $end
$var parameter 32 A UVM_SET $end
$var parameter 32 B UVM_SETINT $end
$var parameter 32 C UVM_SETOBJ $end
$var parameter 32 D UVM_SETSTR $end
$var parameter 32 E UVM_END_FUNCS $end
$var parameter 32 F UVM_STR_CRC_POLYNOMIAL $end
$var parameter 32 G UVM_STDOUT $end
$var parameter 32 H UVM_LINE_WIDTH $end
$var parameter 32 I UVM_NUM_LINES $end
$var parameter 32 J UVM_SMALL_STRING $end
$var parameter 32 K UVM_LARGE_STRING $end
$var reg 1 L uvm_start_uvm_declarations $end
$var integer 32 M uvm_global_random_seed $end
$var integer 32 N max $end
$var integer 32 O UVM_UNBOUNDED_CONNECTIONS $end
$scope function uvm_hdl_check_path $end
$var integer 32 P uvm_hdl_check_path $end
$upscope $end
$scope function uvm_hdl_deposit $end
$var integer 32 Q uvm_hdl_deposit $end
$var reg 1024 R value [1023:0] $end
$upscope $end
$scope function uvm_hdl_force $end
$var integer 32 S uvm_hdl_force $end
$var reg 1024 T value [1023:0] $end
$upscope $end
$scope task uvm_hdl_force_time $end
$var reg 1024 U value [1023:0] $end
$var time 64 V force_time $end
$upscope $end
$scope function uvm_hdl_release_and_read $end
$var integer 32 W uvm_hdl_release_and_read $end
$var reg 1024 X value [1023:0] $end
$upscope $end
$scope function uvm_hdl_release $end
$var integer 32 Y uvm_hdl_release $end
$upscope $end
$scope function uvm_hdl_read $end
$var integer 32 Z uvm_hdl_read $end
$var reg 1024 [ value [1023:0] $end
$upscope $end
$scope function dpi_get_next_arg_c $end
$upscope $end
$scope function dpi_get_tool_name_c $end
$upscope $end
$scope function dpi_get_tool_version_c $end
$upscope $end
$scope function dpi_get_next_arg $end
$upscope $end
$scope function dpi_get_tool_name $end
$upscope $end
$scope function dpi_get_tool_version $end
$upscope $end
$scope function dpi_regcomp $end
$upscope $end
$scope function dpi_regexec $end
$var integer 32 \ dpi_regexec $end
$upscope $end
$scope function dpi_regfree $end
$var reg 0 ] dpi_regfree $end
$upscope $end
$scope function uvm_re_match $end
$var integer 32 ^ uvm_re_match $end
$upscope $end
$scope function uvm_dump_re_cache $end
$var reg 0 _ uvm_dump_re_cache $end
$upscope $end
$scope function uvm_glob_to_re $end
$upscope $end
$scope function uvm_revision_string $end
$upscope $end
$scope function uvm_radix_to_string $end
$var integer 32 ` radix $end
$upscope $end
$scope function uvm_instance_scope $end
$var reg 8 a c [7:0] $end
$var integer 32 b pos $end
$upscope $end
$scope function uvm_oneway_hash $end
$var integer 32 c uvm_oneway_hash $end
$var integer 32 d seed $end
$var reg 1 e msb $end
$var reg 8 f current_byte [7:0] $end
$var reg 32 g crc1 [31:0] $end
$upscope $end
$scope function uvm_create_random_seed $end
$var integer 32 h uvm_create_random_seed $end
$upscope $end
$scope function uvm_object_value_str $end
$upscope $end
$scope function uvm_leaf_scope $end
$var reg 8 i scope_separator [7:0] $end
$var reg 8 j bracket_match [7:0] $end
$var integer 32 k pos $end
$var integer 32 l bmatches $end
$upscope $end
$scope function uvm_vector_to_string $end
$var reg 4096 m value [4095:0] $end
$var integer 32 n size $end
$var integer 32 o radix $end
$upscope $end
$scope function uvm_get_array_index_int $end
$var integer 32 p uvm_get_array_index_int $end
$var reg 1 q is_wildcard $end
$var integer 32 r i $end
$upscope $end
$scope function uvm_get_array_index_string $end
$var reg 1 s is_wildcard $end
$var integer 32 t i $end
$upscope $end
$scope function uvm_is_array $end
$var reg 1 u uvm_is_array $end
$upscope $end
$scope function uvm_has_wildcard $end
$var reg 1 v uvm_has_wildcard $end
$upscope $end
$scope task run_test $end
$upscope $end
$scope function global_stop_request $end
$upscope $end
$scope function set_global_timeout $end
$var time 64 w timeout $end
$var reg 1 x overridable $end
$upscope $end
$scope function set_global_stop_timeout $end
$var time 64 y timeout $end
$upscope $end
$scope function uvm_report_enabled $end
$var reg 1 z uvm_report_enabled $end
$var integer 32 { verbosity $end
$var reg 2 | severity [1:0] $end
$upscope $end
$scope function uvm_report_info $end
$var integer 32 } verbosity $end
$var integer 32 ~ line $end
$upscope $end
$scope function uvm_report_warning $end
$var integer 32 !! verbosity $end
$var integer 32 "! line $end
$upscope $end
$scope function uvm_report_error $end
$var integer 32 #! verbosity $end
$var integer 32 $! line $end
$upscope $end
$scope function uvm_report_fatal $end
$var integer 32 %! verbosity $end
$var integer 32 &! line $end
$upscope $end
$scope function uvm_string_to_severity $end
$var reg 1 '! uvm_string_to_severity $end
$var reg 2 (! sev [1:0] $end
$upscope $end
$scope function uvm_string_to_action $end
$var reg 1 )! uvm_string_to_action $end
$var integer 32 *! action $end
$upscope $end
$scope function set_config_int $end
$var reg 4096 +! value [4095:0] $end
$upscope $end
$scope function set_config_object $end
$var reg 1 ,! clone $end
$upscope $end
$scope function set_config_string $end
$upscope $end
$scope function uvm_is_match $end
$var reg 1 -! uvm_is_match $end
$upscope $end
$scope function uvm_string_to_bits $end
$var reg 115200 .! uvm_string_to_bits [115199:0] $end
$upscope $end
$scope function uvm_bits_to_string $end
$var reg 115200 /! str [115199:0] $end
$upscope $end
$scope task uvm_wait_for_nba_region $end
$var integer 32 0! nba $end
$var integer 32 1! next_nba $end
$upscope $end
$scope function uvm_split_string $end
$upscope $end
$scope function uvm_hdl_concat2string $end
$upscope $end
$upscope $end
$scope begin add_tb_sv_unit $end
$upscope $end
$scope begin std $end
$upscope $end
$enddefinitions $end
#0
$dumpvars
b0 P
b0 Q
bx R
b0 S
bx T
bx U
bx V
b0 W
bx X
b0 Y
b0 Z
bx [
b1 \
0]
b0 ^
0_
1L
b10000010110111001111101100000000 M
b101110 a
b111 b
b110101001010111001111111100110 c
b10000010110111001111101100000000 d
1e
b1110100 f
b11001010110111011000101001101 g
b110101001010111001111111100110 h
b0 i
b0 j
b0 k
b0 l
bx m
b0 n
b0 o
b0 p
0q
b0 r
0s
b0 t
0u
0v
b11111111111111111111111111111111 N
bx w
0x
bx y
0z
b111110100 {
b0 |
b0 }
b0 ~
b0 !!
b0 "!
b0 #!
b0 $!
b0 %!
b0 &!
0)!
b0 *!
bx +!
0,!
0-!
b1101 0!
b1101 1!
b11111111111111111111111111111111 O
b10000000000 !
b "
b #
b $
b %
b1000000000000 &
b1111000000000000000000000000 '
b0 `
b10001 (
b10101010101 )
b101010101 *
b101010101 +
b0 ,
b1 -
b10 .
b100 /
b1000 0
b10000 1
b100000 2
b1000000 3
b10000000 4
b100000000 5
b1000000000 6
b10000000000000 7
b100000000000000 8
b1000000000000000 9
b10000000000000000 :
b100000000000000000 ;
b100000000000000001 <
b100000000000000010 =
b100000000000000011 >
b100000000000000100 ?
b100000000000000101 @
b100000000000000110 A
b100000000000000110 B
b100000000000000111 C
b100000000000001000 D
b100000000000001000 E
b100110000010001110110110110 F
b1 G
0'!
b0 (!
b1111000 H
b1111000 I
b1110111111 J
b11100000111111111 K
bx .!
bx /!
$end
#90000
b1110 1!
b1110 0!
b110101001010111001111111100111 h
#130000
b1111 1!
b1111 0!
b110101001010111001111111101001 h
#170000
b10000 1!
b10000 0!
b110101001010111001111111101100 h
#210000
b10001 1!
b10001 0!
b110101001010111001111111110000 h
#250000
b10010 1!
b10010 0!
b110101001010111001111111110101 h
#290000
b10011 1!
b10011 0!
b110101001010111001111111111011 h
#330000
b10100 1!
b10100 0!
b110101001010111010000000000010 h
#370000
b10101 1!
b10101 0!
b110101001010111010000000001010 h
#410000
b10110 1!
b10110 0!
b110101001010111010000000010011 h
#450000
b10111 1!
b10111 0!
#490000
b11000 1!
b11000 0!
